Save your info !!!

	url  :  xx.xx.x.xxx
	port :  80   

    user :  <user>
	pass :  ***********

	ssh  :  ssh <user>@xx.xx.x.xxx

	---------------------------------------------------------

	new safe user: <safe user>
    pass         : ***********

    ssh  :  ssh safe user@xx.xx.x.xxx
    ---------------------------------------------------------
